Design Route Status
                                               :      # nets :
   ------------------------------------------- : ----------- :
   # of logical nets.......................... :       50212 :
       # of nets not needing routing.......... :       23602 :
           # of internally routed nets........ :       23524 :
           # of nets with no loads............ :          78 :
       # of routable nets..................... :       26610 :
           # of fully routed nets............. :       26610 :
       # of nets with routing errors.......... :           0 :
   ------------------------------------------- : ----------- :

